{
    "http-basic": {
        "nova.laravel.com": {
            "username": "luke.mckelvey@hotmail.com",
            "password": "H19qyNIWB0XyBI6HSBxXSpPPnDUZUW0udvLsDiNnR58C6xlMAk"
        }
    }
}
