<svg xmlns="http://www.w3.org/2000/svg" width="14.405" height="17.387" viewBox="0 0 14.405 17.387">
  <path id="angle-double-right-solid_1_" data-name="angle-double-right-solid (1)" d="M8.7,7.967l-5.932,6.12a1.02,1.02,0,0,1-1.479,0L.308,13.071a1.1,1.1,0,0,1,0-1.526L4.513,7.207.308,2.869a1.1,1.1,0,0,1,0-1.526L1.289.317a1.02,1.02,0,0,1,1.479,0L8.7,6.437A1.1,1.1,0,0,1,8.7,7.967Zm8.375-1.53L11.147.317a1.02,1.02,0,0,0-1.479,0L8.683,1.334a1.1,1.1,0,0,0,0,1.526L12.888,7.2,8.683,11.536a1.1,1.1,0,0,0,0,1.526l.986,1.017a1.02,1.02,0,0,0,1.479,0l5.932-6.12a1.094,1.094,0,0,0,0-1.521Z" transform="translate(14.405) rotate(90)" fill="#01011f"/>
</svg>
